size,avg_ms
1,0.004708599590230733
2,0.006047800707165152
3,0.007065398676786572
4,0.008150200301315635
5,0.01460859930375591
6,0.010708800982683897
7,0.012098799925297499
8,0.013521400978788733
9,0.014799798373132944
10,0.01899859926197678
11,0.017728398961480707
12,0.018955199629999697
13,0.020342401694506407
14,0.021865597227588296
15,0.023125599545892328
16,0.0246385985519737
17,0.02599600120447576
18,0.026997200620826334
19,0.028782400477211922
20,0.029881400405429304
21,0.03126139927189797
22,0.032704601471778005
23,0.034105202939826995
24,0.03545099898474291
25,0.036950400681234896
26,0.03990959812654182
27,0.03951420076191425
28,0.04071819712407887
29,0.04214140062686056
30,0.04374480195110664
31,0.04500719951465726
32,0.046233198372647166
33,0.04767080245073885
34,0.05033320194343105
35,0.05013960035284981
36,0.05179219879209995
37,0.05282780184643343
38,0.05743559740949422
39,0.05599000141955912
40,0.057123998703900725
41,0.05862299876753241
42,0.05995520041324198
43,0.06131980044301599
44,0.062651201733388
45,0.06423519953386858
46,0.06777019734727219
47,0.0669978020596318
48,0.06876539991935715
49,0.06951999821467325
50,0.07295659743249416
51,0.0725260004401207
52,0.07361419993685558
53,0.07552099996246397
54,0.0762512005167082
55,0.07785240013618022
56,0.07922260265331715
57,0.08002459944691509
58,0.08340179920196533
59,0.0835241997265257
60,0.0853502016980201
61,0.08573920204071328
62,0.08765059756115079
63,0.08932519995141774
64,0.09045240003615618
65,0.09218799968948588
66,0.09589399851392955
67,0.09438599809072912
68,0.09612680150894448
69,0.09748720040079206
70,0.09869919886114076
71,0.10297419794369489
72,0.10123300016857684
73,0.10265480086673051
74,0.10665719892131165
75,0.10584420379018411
76,0.10779840085888281
77,0.11155199608765543
78,0.10969139984808862
79,0.11085019941674545
80,0.11225240014027804
81,0.11245239875279367
82,0.12011420039925724
83,0.11707119847415015
84,0.1183897998998873
85,0.11932100023841485
86,0.12100280146114528
87,0.12251879961695522
88,0.12299119989620522
89,0.12556980218505487
90,0.12757719814544544
91,0.1276228009373881
92,0.12915099796373397
93,0.1306112011661753
94,0.13208499876782298
95,0.13203319831518456
96,0.1374583996948786
97,0.13635140203405172
98,0.1391245998092927
99,0.1389098004437983
100,0.14349499979289249
101,0.14148280024528503
102,0.14339879853650928
103,0.14438939979299903
104,0.14735180157003924
105,0.14702540065627545
106,0.14844600082142279
107,0.15219440101645887
108,0.15156479785218835
109,0.1527209984487854
110,0.15307240100810304
111,0.1555545997689478
112,0.16018000023905188
113,0.1601324009243399
114,0.16192100010812283
115,0.15985460340743884
116,0.16464720101794228
117,0.16235120128840208
118,0.16551119915675372
119,0.1687886004219763
120,0.16646840085741132
121,0.16866899823071435
122,0.17279319872613996
123,0.17456600035075098
124,0.17520580004202202
125,0.17573279910720885
126,0.17574919911567122
127,0.18084119947161525
128,0.17836500046541914
129,0.1803307983209379
130,0.18751739844447002
131,0.1837081988924183
132,0.184090000402648
133,0.18604820070322603
134,0.18752359901554883
135,0.1882841985207051
136,0.19168159924447536
137,0.1937094028107822
138,0.19523179944371805
139,0.19403059995966032
140,0.1984347982215695
141,0.19921520142816007
142,0.1976030005607754
143,0.20285180071368814
144,0.19875040161423385
145,0.20185220200801268
146,0.20787119719898328
147,0.20700480235973373
148,0.2062710002064705
149,0.20928939920850098
150,0.2096910000545904
151,0.21083480096422136
152,0.21514980035135522
153,0.21457099937833846
154,0.2182929980335757
155,0.21528619836317375
156,0.2183703996706754
157,0.2183067990699783
158,0.22472099954029545
159,0.22138000203995034
160,0.22361640149028972
161,0.22744860034435987
162,0.22862379992147908
163,0.22632099717156962
164,0.2348338020965457
165,0.2301814005477354
166,0.23193440138129517
167,0.23416879848809913
168,0.23469500010833144
169,0.2390766007010825
170,0.23917840153444558
171,0.23870160075603053
172,0.23874319886090234
173,0.23935960052767769
174,0.24307479907292873
175,0.2479651986504905
176,0.248715998895932
177,0.25117939949268475
178,0.25052959827007726
179,0.2506985983927734
180,0.25423480110475793
181,0.2573604026110843
182,0.25323579902760684
183,0.2552186022512615
184,0.25656979851191863
185,0.2620573985041119
186,0.2619380029500462
187,0.26226699992548674
188,0.2654180003446527
189,0.26490419695619494
190,0.2693176007596776
191,0.26570560003165156
192,0.26811060088220984
193,0.27326319977873936
194,0.2733240005909465
195,0.27129160007461905
196,0.27243100048508495
197,0.27790220046881586
198,0.28001120226690546
199,0.27603300113696605
200,0.2820632013026625
201,0.27857459790538996
202,0.2867039991542697
203,0.28346600010991096
204,0.2919578008004464
205,0.28716419910779223
206,0.2878992017940618
207,0.29294179985299706
208,0.29155659867683426
209,0.2959183984785341
210,0.29733619885519147
211,0.2974955990794115
212,0.29814300214638934
213,0.30244959925767034
214,0.2976234012749046
215,0.303381601406727
216,0.3069083977607079
217,0.3052189989830367
218,0.3131997989839874
219,0.30841019906802103
220,0.30841219995636493
221,0.3129967997665517
222,0.31352179939858615
223,0.3124787981505506
224,0.3196457997546531
225,0.31591760052833706
226,0.3191043986589648
227,0.3238479999708943
228,0.32294880074914545
229,0.3210355993360281
230,0.3254697992815636
231,0.32548280141782016
232,0.3283512021880597
233,0.3279627999290824
234,0.33344660041620955
235,0.3346769997733645
236,0.3326814010506496
237,0.33714140008669347
238,0.337556199519895
239,0.3403840004466474
240,0.3399891997105442
241,0.34252080076839775
242,0.3429709991905838
243,0.3474586002994329
244,0.34714640059974045
245,0.3457448008703068
246,0.3491275987471454
247,0.34796460095094517
248,0.35000039933947846
249,0.35302999895066023
250,0.3602313983719796
251,0.35559720126912
252,0.35982859699288383
253,0.35811400157399476
254,0.362981999933254
255,0.36151439999230206
256,0.3662447983515449
257,0.38515720079885796
258,0.4057000027387403
259,0.3993886013631709
260,0.40144359809346497
261,0.41097140056081116
262,0.40306280134245753
263,0.40655339980730787
264,0.4081389997736551
265,0.4142965975916013
266,0.4201059986371547
267,0.4122465994441882
268,0.41881179640768096
269,0.41581379919080064
270,0.4201524003292434
271,0.4234886000631377
272,0.4249864010489546
273,0.42582400055835024
274,0.42885339935310185
275,0.42570600053295493
276,0.4313605997595005
277,0.4304660003981553
278,0.4375303993583657
279,0.43484039924805984
280,0.4353641998022795
281,0.4345098015619442
282,0.44079959916416556
283,0.43922339827986434
284,0.44723100145347416
285,0.4403416009154171
286,0.4492485983064398
287,0.45058159885229543
288,0.4478001981624402
289,0.4546129988739267
290,0.4546860000118613
291,0.45348679850576445
292,0.45626540086232126
293,0.4583813977660611
294,0.4566481991787441
295,0.46270880120573565
296,0.46484519843943417
297,0.46199899952625856
298,0.46855180262355134
299,0.46816859976388514
300,0.46835399989504367
301,0.4772007974679582
302,0.47802379849599674
303,0.47367819788632914
304,0.47741260059410706
305,0.47559840022586286
306,0.48276760207954794
307,0.4850328026805073
308,0.48463179991813377
309,0.48360040091210976
310,0.4879457992501557
311,0.4898259983747266
312,0.48976340040098876
313,0.49319780082441866
314,0.49607900145929307
315,0.4938745987601578
316,0.4949937982019037
317,0.4977087999577634
318,0.504334201104939
319,0.49852960073621944
320,0.502231199061498
321,0.5041768032242544
322,0.5105907999677584
323,0.5107335979118943
324,0.5129302007844672
325,0.5120604022522457
326,0.5087306009954773
327,0.515197403728962
328,0.5189878007513471
329,0.5309467989718542
330,0.5221204002737068
331,0.5216817982727662
332,0.5245698033832014
333,0.522973999613896
334,0.5261757993139327
335,0.5329371997504495
336,0.5311545988661237
337,0.5331652006134391
338,0.5348366001271643
339,0.5366503988625482
340,0.7841561993700452
341,0.5394234001869336
342,0.5450761978863738
343,0.541494000935927
344,0.5399776026024483
345,0.5434425984276459
346,0.55959200108191
347,0.5518481993931346
348,0.549784601025749
349,0.5527320012333803
350,0.5547341977944598
351,0.5587392006418668
352,0.5796390018076636
353,0.5556674019317143
354,0.5599081996479072
355,0.5610962005448528
356,0.564213001052849
357,0.570368800254073
358,0.5643855998641811
359,0.5690816004062071
360,0.5726814008085057
361,0.5697302010958083
362,0.5727586016291752
363,0.5744328009313904
364,0.5731419994845055
365,0.578552002843935
366,0.5780724008218385
367,0.5806229994050227
368,0.584729399997741
369,0.5819054000312462
370,0.5856198011315428
371,0.5966482000076212
372,0.5888725994736888
373,0.5917670016060583
374,0.5890302010811865
375,0.5977006003377028
376,0.596834602765739
377,0.593074198695831
378,0.598971001454629
379,0.5993196027702652
380,0.6055730002117343
381,0.6022004003170878
382,0.6059615989215672
383,0.6061937980121002
384,0.6112872011726722
385,0.6122833990957588
386,0.6246402001124807
387,0.614455399045255
388,0.6119977988419123
389,0.6179978008731268
390,0.6217887988896109
391,0.6162953999591991
392,0.6222482028533705
393,0.6223561984370463
394,0.6270079975365661
395,0.6273182021686807
396,0.6287483993219212
397,0.6313088015303947
398,0.6306708004558459
399,0.6356141995638609
400,0.6408531990018673
401,0.6342719992971979
402,0.6416824006009847
403,0.6458139992901124
404,0.643999400199391
405,0.6460606004111469
406,0.6457234005210921
407,0.6482506025349721
408,0.6485774021712132
409,0.6515850021969527
410,0.655586997163482
411,0.6523962001665495
412,0.654585799202323
413,0.6512677995488048
414,0.6577655978617258
415,0.6543026000144891
416,0.662685401039198
417,0.6620642016059719
418,0.6639909988734871
419,0.664901798882056
420,0.664910399063956
421,0.6647834001341835
422,0.6688257999485359
423,0.6696029988233931
424,0.6739575997926295
425,0.6734691996825859
426,0.679167800990399
427,0.6825883989222348
428,0.680269201984629
429,0.6766393984435126
430,0.6822978015406989
431,0.6867968011647463
432,0.6824513999163173
433,0.6834526007878594
434,0.6909494026331231
435,0.6899150015669875
436,0.6903343994054012
437,0.696627599245403
438,0.6923877997905947
439,0.6952176001504995
440,0.6978967983741313
441,0.7055517984554172
442,0.70524140028283
443,0.7057715993141755
444,0.7026718012639321
445,0.703167800384108
446,0.7096146000549197
447,0.7082516007358208
448,0.7127195989596657
449,0.7118423993233591
450,0.7174006008426659
451,0.7157881991588511
452,0.7181272012530826
453,0.7194266014266759
454,0.7250157999806106
455,0.7221824023872614
456,0.721362596959807
457,0.7276845994056202
458,0.7319559997995384
459,0.7289528002729639
460,0.7352948014158756
461,0.7286246007424779
462,0.7368270002189092
463,0.734177601407282
464,0.7391443985397927
465,0.7432316007907502
466,0.7543560015619732
467,0.7418728011543863
468,0.7436844010953791
469,0.7447030002367683
470,0.7438592001562938
471,0.7543957966845483
472,0.7476802027667873
473,0.7496641977922991
474,0.7591578003484756
475,0.7585847983136773
476,0.759670403203927
477,0.7616460003191605
478,0.7697769993683323
479,0.7641911986866035
480,0.7626817998243496
481,0.7626653998158872
482,0.7695520005654544
483,0.7763066023471765
484,0.7742793997749686
485,0.7807729998603463
486,0.7827651992556639
487,0.7839655983843841
488,0.7868531989515759
489,0.7897229996160604
490,0.7840779988327995
491,0.7916499991551973
492,0.7935305999126285
493,0.7904946018243209
494,0.7996369982720353
495,0.7925025987788104
496,0.7996489992365241
497,0.7997859996976331
498,0.8019859975320287
499,0.7961238006828353
500,0.8044693982810713
501,0.8134738003718667
502,0.8085756009677425
503,0.8110358015983365
504,0.8098638005321845
505,0.8174620030331425
506,0.8165520019247197
507,0.8170788001734763
508,0.8167050007614307
509,0.8234314009314403
510,0.8207226012018509
511,0.8232922002207488
512,0.8305675990413874
513,0.8261769995442592
514,0.8352028002263978
515,0.8313351994729601
516,0.8287239994388074
517,0.8343745997990482
518,0.8334673984791152
519,0.833725999109447
520,0.838537399249617
521,0.8391268027480692
522,0.8455769988358952
523,0.8548120007617399
524,0.8549561986001208
525,0.8571718004532158
526,0.851699999475386
527,0.8780006013694219
528,0.8549214020604268
529,0.853782199556008
530,0.8596885993028991
531,0.8566937991417944
532,0.8602013986092061
533,0.8598272004746832
534,0.8741373996599577
535,0.8707811997737736
536,0.8653415978187695
537,0.8674832017277367
538,0.8725977997528389
539,0.8726755986572243
540,0.8797952003078535
541,0.8783877987298183
542,0.8765513979597017
543,0.8776746006333269
544,0.889002600160893
545,0.8869831988704391
546,0.8866139993187971
547,0.8844870011671446
548,0.892380801087711
549,0.8855430001858622
550,0.8916681981645525
551,0.8958790000178851
552,0.8928063994972035
553,0.8938828003010713
554,0.9145506002823822
555,0.8973324001999572
556,0.8984630010672845
557,0.904104599612765
558,0.9063850011443719
559,0.900059801642783
560,0.9108306010602973
561,0.9042013974976726
562,0.9178446009173058
563,0.9103710006456822
564,0.9096421985304914
565,0.9215500016580336
566,0.9197996012517251
567,0.9226897978805937
568,0.9228833994711749
569,0.919321998662781
570,0.9345223996206187
571,0.9260492020985112
572,0.928848200419452
573,0.9306107982411049
574,0.947722997807432
575,0.9278518016799353
576,0.9327285995823331
577,0.9374838002258912
578,0.9425180003745481
579,0.9399196002050303
580,0.9424049974768423
581,0.9434089995920658
582,0.9396194000146352
583,0.9453182006836869
584,0.9507303999271244
585,0.9471326004131697
586,0.9515379992080852
587,0.950320201809518
588,0.9627504012314603
589,0.9530569994240068
590,0.9568166031385772
591,0.9621753983083181
592,0.9579016012139618
593,0.9567864006385207
594,0.9674780012574047
595,0.9674232016550377
596,0.9647332000895403
597,0.9684554010163993
598,0.968747200386133
599,0.9634384012315422
600,0.9597312004189007
601,0.9638966002967209
602,0.9704527983558364
603,0.979264201305341
604,0.9709902020404115
605,0.9716286003822461
606,0.9713963998365216
607,0.9753474019817077
608,0.9825417990214191
609,0.977833203796763
610,0.9865817992249504
611,0.9817045996896923
612,0.9865073967375793
613,0.9957632020814344
614,0.9929544001352042
615,0.9951719985110685
616,0.9952484018867835
617,0.9950720021151938
618,0.9991751998313703
619,1.0027019990957342
620,1.0010697995312512
621,0.999824600876309
622,1.0135773991351016
623,1.0029881988884881
624,1.0044017995824106
625,1.0055869992356747
626,1.0073107987409458
627,1.0034347986220382
628,1.00526419992093
629,1.0110332019394264
630,1.0104926011990756
631,1.0160039993934333
632,1.0186197992879897
633,1.0177055999520235
634,1.0161840007640421
635,1.0214116016868502
636,1.0225368008832447
637,1.0232030021143146
638,1.0246726000332274
639,1.026250199356582
640,1.0278036003001034
641,1.0289217985700816
642,1.0372424003435299
643,1.0335379993193783
644,1.035225398663897
645,1.035555599082727
646,1.033931398706045
647,1.042816397966817
648,1.0396560013759881
649,1.0404970016679727
650,1.0457232012413442
651,1.045782200526446
652,1.0504974008654244
653,1.0514584020711482
654,1.0524305995204486
655,1.0505813988856971
656,1.0718545992858708
657,1.053777799825184
658,1.4357149979332462
659,1.0618959975545295
660,1.0640046006301418
661,1.0628756004734896
662,1.0633083991706371
663,1.063803800207097
664,1.0642269990057684
665,1.0721856015152298
666,1.083616999676451
667,1.076299800479319
668,1.072974801354576
669,1.0769646003609523
670,1.0785106002003886
671,1.0795630005304702
672,1.0775668008136563
673,1.0802054006489925
674,1.0854103995370679
675,1.0892299993429333
676,1.087805998395197
677,1.0859706002520397
678,1.0879747991566546
679,1.0932331992080435
680,1.0936274004052393
681,1.096536401018966
682,1.1257463993388228
683,1.106858799175825
684,1.0934771999018267
685,1.1025321975466795
686,1.103363597940188
687,1.1053128007915802
688,1.102495200757403
689,1.1099819996161386
690,1.1115960020106286
691,1.1107256010291167
692,1.1255855992203578
693,1.1159215995576233
694,1.115412000217475
695,1.1217356004635803
696,1.1160182009916753
697,1.1226145972614177
698,1.1246074005612172
699,1.127362203260418
700,1.1245093992329203
701,1.1273677999270149
702,1.1254523997195065
703,1.1336213996401057
704,1.1358031988493167
705,1.1403723998228088
706,1.1414972017519176
707,1.1383408011170104
708,1.1404231991036795
709,1.1378593975678086
710,1.1470374010968953
711,1.1490457996842451
712,1.148086400644388
713,1.1480180008220486
714,1.176216198655311
715,1.1706984019838274
716,1.180825402843766
717,1.1819291990832426
718,1.1766188006731682
719,1.1828268034150824
720,1.1839583996334113
721,1.182945199252572
722,1.1963055992964655
723,1.1920785997062922
724,1.1976741996477358
725,1.1985723991529085
726,1.1955125984968618
727,1.2013214000035077
728,1.2030724014039151
729,1.1930669992580079
730,1.2073500009137206
731,1.2070070006302558
732,1.2053292011842132
733,1.2082880013622344
734,1.2096464008209296
735,1.2025415999232791
736,1.2149115995271131
737,1.1915661991224624
738,1.191411200852599
739,1.195742399431765
740,1.189550202980172
741,1.19516660051886
742,1.1850857990793884
743,1.1982121999608353
744,1.200244200299494
745,1.1908908025361598
746,1.203308001277037
747,1.2448887995560654
748,1.2406896028551273
749,1.244961797783617
750,1.2506658022175543
751,1.2390087998937815
752,1.2492180001572706
753,1.247925999632571
754,1.255909600877203
755,1.2541941992822103
756,1.2664695983403362
757,1.2556929999846034
758,1.2589617996127345
759,1.2601967988302931
760,1.2660246022278443
761,1.2634101978619583
762,1.2740820020553656
763,1.265099000011105
764,1.2778020012774505
765,1.2671156000578776
766,1.2837192000006326
767,1.2780277989804745
768,1.2802728000679053
769,1.2711104020127095
770,1.2857679990702309
771,1.2809162013581954
772,1.2928235970321111
773,1.2890386002254672
774,1.295722600480076
775,1.298056602536235
776,1.300613398780115
777,1.294266601325944
778,1.267355000891257
779,1.257937599439174
780,1.2535761983599514
781,1.2557877984363586
782,1.2636838015168905
783,1.2772144022164866
784,1.284768401819747
785,1.2844652010244317
786,1.2887492004665546
787,1.2857233989052474
788,1.3104326018947177
789,1.2935976003063843
790,1.2980223997146823
791,1.293268401059322
792,1.3231942008133046
793,1.3004375985474326
794,1.30034800095018
795,1.2927690011565574
796,1.3073973983409815
797,1.3019831982092
798,1.3017599994782358
799,1.2959428000613116
800,1.3101397998980246
801,1.312873198185116
802,1.3142504001734778
803,1.3133485990692861
804,1.3032180009759031
805,1.2993897995329462
806,1.3002296022023074
807,1.3055579998763278
808,1.3031697992119007
809,1.3065308012301102
810,1.3079093987471424
811,1.3143405987648293
812,1.3140380004188046
813,1.3104457990266383
814,1.313074400241021
815,1.315259801049251
816,1.3140426031895913
817,1.3176004023989663
818,1.3252453980385326
819,1.3255857993499376
820,1.315588400757406
821,1.3238729981821962
822,1.3268315989989787
823,1.3273261996801011
824,1.330503802455496
825,1.3278742000693455
826,1.331288398068864
827,1.3339911994989961
828,1.3323775987373665
829,1.3338615972315893
830,1.3409138016868383
831,1.3393025976256467
832,1.3445861986838281
833,1.3456290020258166
834,1.345203400705941
835,1.347597200947348
836,1.3441793998936191
837,1.3540220010327175
838,1.348862799932249
839,1.355900798807852
840,1.362003399117384
841,1.3593625990324654
842,1.3618823999422602
843,1.3766698015388101
844,1.3826762020471506
845,1.387596401036717
846,1.3857887970516458
847,1.3898029996198602
848,1.3901771992095746
849,1.396319999184925
850,1.396444599959068
851,1.3927640015026554
852,1.397302000259515
853,1.3984067991259508
854,1.3998071997775696
855,1.402505801524967
856,1.4082581983529963
857,1.3878637997549959
858,1.3914439987274818
859,1.3867506000678986
860,1.4014420012244955
861,1.3917211996158585
862,1.4066171992453746
863,1.4102763976552524
864,1.42118380026659
865,1.4140560000669211
866,1.4250801992602646
867,1.4338959983433597
868,1.4195595984347165
869,1.4205971980118193
870,1.4058978005778044
871,1.405201201851014
872,1.4120848005404696
873,1.4130646028206684
874,1.4604745985707268
875,1.412307401187718
876,1.4100224012508988
877,1.4127826027106494
878,1.4132358017377555
879,1.4187900014803745
880,1.4194783987477422
881,1.4252905995817855
882,1.4219499993487261
883,1.4338514010887593
884,1.4276738002081402
885,1.429088799341116
886,1.4285878016380593
887,1.4551520012901165
888,1.4562481970642693
889,1.450884599762503
890,1.455292000900954
891,1.4592737992643379
892,1.4496351999696344
893,1.4522410012432374
894,1.4553435990819708
895,1.4407727983780205
896,1.4442171988775954
897,1.448459598759655
898,1.4534230009303428
899,1.4560335999703966
900,1.4533089983160608
901,1.456380200397689
902,1.4580097995349206
903,1.458833996730391
904,1.4645019982708618
905,1.4624445990193635
906,1.470887400500942
907,1.4864548007608391
908,1.8268249987158924
909,1.8643192015588284
910,1.8603611999424174
911,1.8620493996422738
912,1.8667684009415098
913,1.872254601039458
914,1.886333999573253
915,1.869378397532273
916,1.872627399279736
917,1.8761750005069189
918,1.8790222005918622
919,1.8866939994040877
920,1.8813491988112219
921,1.8968966003740206
922,1.888915797462687
923,1.8955538020236418
924,1.886944599391427
925,1.8962983987876214
926,1.9062560008023866
927,1.8988853989867494
928,1.8955963998450898
929,1.901748200180009
930,1.8999963998794556
931,1.9011637996300124
932,1.9040113998926245
933,1.9046290035475977
934,1.9056153993005864
935,1.926366398402024
936,1.940955400641542
937,1.9290012016426772
938,1.941204402828589
939,1.937985401309561
940,1.9421759992837906
941,1.9438084011198953
942,1.9463502001599409
943,1.9432788045378402
944,1.9431391978287138
945,1.9493044004775584
946,1.9507792007061653
947,1.9492348001222126
948,1.9513142004143447
949,1.9539350003469735
950,1.956302800681442
951,1.9672355992952362
952,1.9541343994205818
953,1.9566023984225467
954,1.9599374005338177
955,1.9673729984788224
956,1.9653639988973737
957,1.9639049991383217
958,1.9501439994201064
959,1.9423205987550318
960,1.95384999824455
961,1.9544442009646446
962,1.9537624000804499
963,1.9589492003433406
964,1.964845998736564
965,1.9915196025976911
966,1.9675484028994106
967,1.9639314006781206
968,1.9610293995356187
969,1.9654327988973819
970,1.9619498008978553
971,1.968001198838465
972,1.9717390008736402
973,1.9700193995959125
974,1.9745826022699475
975,1.9693135996931233
976,1.975453797786031
977,1.9724639976629987
978,1.9770184007938951
979,1.9868423987645656
980,1.9818366010440513
981,1.9857945982948877
982,1.9913637996069156
983,1.9855392005410977
984,1.9863966008415446
985,1.9847966017550789
986,1.98663379997015
987,1.9943291990784928
988,1.9947249995311722
989,2.0100587993511
990,1.9974498005467467
991,1.998273198842071
992,1.996431800944265
993,2.003493200754747
994,2.0218683988787234
995,2.006579199223779
996,2.0073521984159015
997,2.0108026001253165
998,2.015313401352614
999,2.006012000492774
1000,2.0377256005303934
1001,2.034660398203414
1002,2.0417808002093807
1003,2.0523153987596743
1004,2.046416398661677
1005,2.0271233981475234
1006,2.023660799022764
1007,2.030454998021014
1008,2.052733399614226
1009,2.054234799288679
1010,2.0604328004992567
1011,2.058495199889876
1012,2.064292000432033
1013,2.054147599847056
1014,2.063961398380343
1015,2.072688798944
1016,2.067889399768319
1017,2.0598039976903237
1018,2.071948198135942
1019,2.072987798601389
1020,2.070084800652694
1021,2.0709151969640516
1022,2.0714427999337204
1023,2.0750564013724215
1024,2.0783639993169345
1025,2.0801840000785887
1026,2.0815262003452517
1027,2.0825094004976563
1028,2.076474000932649
1029,2.061533801315818
1030,2.0672528000432067
1031,2.0642825998947956
1032,2.0618577997083776
1033,2.0679741981439292
1034,2.074792198254727
1035,2.071521198377013
1036,2.071338398673106
1037,2.078174000780564
1038,2.07887419819599
1039,2.0789039990631863
1040,2.081741798610892
1041,2.0767110007000156
1042,2.0873223984381184
1043,2.08587359811645
1044,2.084072800062131
1045,2.0801511986064725
1046,2.0876000009593554
1047,2.0922173993312754
1048,2.087701001437381
1049,2.0889908002573065
1050,2.0974720013327897
1051,2.101404999848455
1052,2.1073476018500514
1053,2.1040090010501444
1054,2.1029663999797776
1055,2.1031674012192525
1056,2.1020164000219665
1057,2.10700900061056
1058,2.11226399987936
1059,2.1066606015665457
1060,2.1096390002639964
1061,2.1224276031716727
1062,2.132196399907116
1063,2.1179791991016828
1064,2.116868800658267
1065,2.1165051992284134
1066,2.1343466010876
1067,2.1287413997924887
1068,2.1241469992673956
1069,2.135215602174867
1070,2.1283236012095585
1071,2.137307399243582
1072,2.132319401425775
1073,2.1386774023994803
1074,2.142835399718024
1075,2.147093399253208
1076,2.13909179874463
1077,2.1405018007499166
1078,2.1448988001793623
1079,2.149171401106287
1080,2.1408970016636886
1081,2.1583614026894793
1082,2.14797499938868
1083,2.1389793982962146
1084,2.1507786004804075
1085,2.153347402054351
1086,2.1588205971056595
1087,2.1600579988444224
1088,2.1589881987893023
1089,2.1611618023598567
1090,2.165603202593047
1091,2.1684670020476915
1092,2.1614363984554075
1093,2.1781694013043307
1094,2.1689810004318133
1095,2.169827798206825
1096,2.1738818017183803
1097,2.1758023998700082
1098,2.1773100015707314
1099,2.1765242010587826
1100,2.1885237976675853
1101,2.1813291998114437
1102,2.1863379995920695
1103,2.1895127982134
1104,2.184338001825381
1105,2.1874808007851243
1106,2.190870801860001
1107,2.195459201175254
1108,2.1947030021692626
1109,2.1893540004384704
1110,2.1969576002447866
1111,2.20321360102389
1112,2.1982671969453804
1113,2.1960840007523075
1114,2.197639999212697
1115,2.2034043999155983
1116,2.2007003994076513
1117,2.211618000001181
1118,2.2100389993283898
1119,2.2207606001757085
1120,2.219079600763507
1121,2.211468998575583
1122,2.2151760014821775
1123,2.2206421999726444
1124,2.222342399181798
1125,2.220763398509007
1126,2.218347198504489
1127,2.238550600304734
1128,2.224548200319987
1129,2.2260010009631515
1130,2.2305538004729897
1131,2.23887859901879
1132,2.2272568006883375
1133,2.2308816012809984
1134,2.2330148014589213
1135,2.236817999801133
1136,2.249242198013235
1137,2.2433782010921277
1138,2.248203799535986
1139,2.240792599332053
1140,2.257577200361993
1141,2.245162801409606
1142,2.245745199616067
1143,2.251776200137101
1144,2.249167200352531
1145,2.2529244000907056
1146,2.259918001072947
1147,2.2532344024511985
1148,2.259492198936641
1149,2.2623817989369854
1150,2.263952798966784
1151,2.258441402227618
1152,2.262801800679881
1153,2.264365200244356
1154,2.2658601999864914
1155,2.2724202019162476
1156,2.268057598848827
1157,2.2707312018610537
1158,2.273098798468709
1159,2.2762552005588077
1160,2.2792383999330923
1161,2.2779927967349067
1162,2.278187801130116
1163,2.2834727991721593
1164,2.284270999371074
1165,2.281919999222737
1166,2.2803504005423747
1167,2.2921968018636107
1168,2.2909447987331077
1169,2.296465801191516
1170,2.2933654006919824
1171,2.2948319965507835
1172,2.292731200577691
1173,2.2975040003075264
1174,2.3007548006717116
1175,2.299226398463361
1176,2.3049771989462897
1177,2.314497999032028
1178,2.3044136018143035
1179,2.3081303981598467
1180,2.305204402364325
1181,2.3176157992566004
1182,2.3163933990872465
1183,2.3100685997633263
1184,2.3190643987618387
1185,2.3171763998107053
1186,2.3211462001199834
1187,2.3372056006337516
1188,2.3214680011733435
1189,2.3211355990497395
1190,2.327367599355057
1191,2.326613001059741
1192,2.3262076007085852
1193,2.3240589987835847
1194,2.3447534011211246
1195,2.336858998751268
1196,2.337560398154892
1197,2.337177003209945
1198,2.339875799953006
1199,2.3427671985700727
1200,2.729489401099272
1201,2.3507234000135213
1202,2.3472250017221086
1203,2.3483352008042857
1204,2.345083399268333
1205,2.3539855974377133
1206,2.3516198009019718
1207,2.346479801053647
1208,2.356294999481179
1209,2.3558771979878657
1210,2.352710798732005
1211,2.3616284015588462
1212,2.3557262000394985
1213,2.3623960005352274
1214,2.3606047965586185
1215,2.361877399380319
1216,2.373413401073776
1217,2.3663679996388964
1218,2.3830389996874146
1219,2.3715436007478274
1220,2.3714900002232753
1221,2.380025599268265
1222,2.3893202014733106
1223,2.3921973988763057
1224,2.3971738017280586
1225,2.41295860032551
1226,2.433702601410914
1227,2.419763799116481
1228,2.4280849989736453
1229,2.4251119975815527
1230,2.4174617996322922
1231,2.42552940180758
1232,2.433715801453218
1233,2.42877540003974
1234,2.436313200450968
1235,2.4289104010676965
1236,2.432602399494499
1237,2.443956199567765
1238,2.437299399753101
1239,2.429731999291107
1240,2.4192819982999936
1241,2.415992999158334
1242,2.407882198167499
1243,2.412660601839889
1244,2.409911800350528
1245,2.4212244010413997
1246,2.428332800627686
1247,2.41512960055843
1248,2.422142399882432
1249,2.4327776016434655
1250,2.421559000504203
1251,2.4302373989485204
1252,2.434125600848347
1253,2.4534373995265923
1254,2.4589911990915425
1255,2.4700682013644837
1256,2.468139999837149
1257,2.468562198919244
1258,2.4681187991518527
1259,2.47131260111928
1260,2.4774429984972812
1261,2.474041999084875
1262,2.484531198570039
1263,2.4752297991653904
1264,2.4831257993355393
1265,2.479676999791991
1266,2.488996199099347
1267,2.4866786028724164
1268,2.487767602724489
1269,2.4938793983892538
1270,2.4726616000407375
1271,2.4874034003005363
1272,2.49796099960804
1273,2.4984345989651047
1274,2.500011000665836
1275,2.5050686017493717
1276,2.506237399938982
1277,2.5066550020710565
1278,2.5101477978751063
1279,2.5138635974144563
1280,2.5175392016535625
1281,2.5104190019192174
1282,2.5190751985064708
1283,2.512631399440579
1284,2.521798601082992
1285,2.5153898022836074
1286,2.4831401970004663
1287,2.487148799991701
1288,2.4938234011642635
1289,2.49087980191689
1290,2.5006659983773716
1291,2.4985449999803677
1292,2.5244529984775
1293,2.536484200390987
1294,2.51380100089591
1295,2.5025778013514355
1296,2.50478700036183
1297,2.5034704012796283
1298,2.505753599689342
1299,2.503151998098474
1300,2.51476300181821
1301,2.5110215981840156
1302,2.5141639984212816
1303,2.5157732001389377
1304,2.515087800566107
1305,2.5103020001552068
1306,2.5193185996613465
1307,2.520562599238474
1308,2.5331395998364314
1309,2.530149598896969
1310,2.530535397818312
1311,2.529105998110026
1312,2.5363514010678045
1313,2.5305896007921547
1314,2.5392698007635772
1315,2.5377080019097775
1316,2.5340117994346656
1317,2.5412763992790133
1318,2.545668800303247
1319,2.543297399824951
1320,2.5546051998389885
1321,2.5449097985983826
1322,2.546840197464917
1323,2.552847398328595
1324,2.560623003228102
1325,2.5561045986250974
1326,2.5560926005709916
1327,2.553064198582433
1328,2.564267601701431
1329,2.5566591997630894
1330,2.563688800728414
1331,2.5693320014397614
1332,2.5747880004928447
1333,2.606750198174268
1334,2.6006441985373385
1335,2.6082916010636836
1336,2.609577600378543
1337,2.5770858002942987
1338,2.5854298000922427
1339,2.5778094000997953
1340,2.5987569999415427
1341,2.5797693990170956
1342,2.5809832019149326
1343,2.5792481974349357
1344,2.5842127986834385
1345,2.5897587998770177
1346,2.582118801365141
1347,2.5948089984012768
1348,2.5923134016920812
1349,2.5868627984891646
1350,2.5927693975972943
1351,2.592671601451002
1352,2.600293801515363
1353,2.589890200761147
1354,2.6020293997135013
1355,2.633003599476069
1356,2.632117603207007
1357,2.6384595985291526
1358,2.641377401596401
1359,2.641354799561668
1360,2.6477475999854505
1361,2.6428414013935253
1362,2.9677417973289266
1363,3.0342350000864826
1364,3.030619201308582
1365,3.0350458007887937
1366,3.02987379982369
1367,3.032145598263014
1368,3.0319473997224122
1369,3.044992600916885
1370,3.0419538030400872
1371,3.049106000980828
1372,3.0453939994913526
1373,3.0467965989373624
1374,3.057068398629781
1375,3.0505635993904434
1376,3.0548886003089137
1377,3.043479600455612
1378,3.032245996291749
1379,3.058819199213758
1380,3.059191802458372
1381,3.0634230002760887
1382,3.052761401340831
1383,3.071409199037589
1384,3.062629200576339
1385,3.0622905993368477
1386,3.0674233988975175
1387,3.0745959986234084
1388,3.0651038003270514
1389,3.0873975993017666
1390,3.0533922006725334
1391,3.0381426011445
1392,3.0474882005364634
1393,3.0929797983844765
1394,3.0833490018267184
1395,3.0818983985227533
1396,3.0962174001615494
1397,3.083628801687155
1398,3.0799397980445065
1399,3.1004473989014514
1400,3.079592999711167
1401,3.0964505989686586
1402,3.1066524010384455
1403,3.1003222000435926
1404,3.1029630001285113
1405,3.098174797196407
1406,3.1108516006497666
1407,3.1049820012412965
1408,3.108059801161289
1409,3.109828998276498
1410,3.1170991976978257
1411,3.1108320006751455
1412,3.1144196007517166
1413,3.1146153996814974
1414,3.130611796223093
1415,3.121464798459783
1416,3.122467601497192
1417,3.139987798931543
1418,3.1194656010484323
1419,3.092859999742359
1420,3.1338216009316966
1421,3.131854598177597
1422,3.122491401154548
1423,3.145311601110734
1424,3.13509779953165
1425,3.1323921983130276
1426,3.1491583984461613
1427,3.1030772006488405
1428,3.1018262001452968
1429,3.105999599210918
1430,3.1470019996049814
1431,3.1195484014460817
1432,3.1351005993201397
1433,3.122769198671449
1434,3.1641328023397364
1435,3.1621286005247384
1436,3.119768599572126
1437,3.15885620075278
1438,3.165945598448161
1439,3.167009800381493
1440,3.156603002571501
1441,3.171168600965757
1442,3.1616303967894055
1443,3.1648879987187684
1444,3.173959400737658
1445,3.178103599930182
1446,3.1748697976581752
1447,3.175381399341859
1448,3.1702184001915157
1449,3.1869862010353245
1450,3.175104799447581
1451,3.177197600598447
1452,3.1810669985134155
1453,3.191146800236311
1454,3.1804096011910588
1455,3.1840814015595242
1456,3.1798668031115085
1457,3.188721399055794
1458,3.190497799369041
1459,3.196516400203109
1460,3.1993004013202153
1461,3.1968799987225793
1462,3.1997323996620253
1463,3.181360400049016
1464,3.195955000410322
1465,3.217634797329083
1466,3.2060750003438443
1467,3.2049992034444585
1468,3.211772401118651
1469,3.203313800622709
1470,3.212014603195712
1471,3.21249820117373
1472,3.2159643989871256
1473,3.1809102001716383
1474,3.1766460015205666
1475,3.1833724002353847
1476,3.17791380075505
1477,3.204305999679491
1478,3.2207136013312265
1479,3.218767799262423
1480,3.227971598971635
1481,3.227617200172972
1482,3.226094001729507
1483,3.2299282000167295
1484,3.233882802305743
1485,3.2316545984940603
1486,3.232026202022098
1487,3.2352900016121566
1488,3.240007000567857
1489,3.2513452009879984
1490,3.2437862013466656
1491,3.246713799308054
1492,3.2476316002430394
1493,3.2448329977341928
1494,3.262580800219439
1495,3.218108600412961
1496,3.219708400138188
1497,3.2094597976538353
1498,3.25571959692752
1499,3.2642156002111733
1500,3.262569400249049
1501,3.275396399840247
1502,3.260308400786016
1503,3.2692223991034552
1504,3.2527896008105017
1505,3.230197798984591
1506,3.8068500012741424
1507,3.2644859995343722
1508,3.236446600931231
1509,3.2819356012623757
1510,3.289682600006927
1511,3.2858816004591063
1512,3.297818001010455
1513,3.2795500010252
1514,3.291703399736434
1515,3.2829522009706125
1516,3.278911799134221
1517,3.2943073980277404
1518,3.291729600459803
1519,3.2897519995458424
1520,3.2957247996819206
1521,3.2975701993564144
1522,3.2972879984299652
1523,3.3004636017722078
1524,3.3146465983008966
1525,3.3127646005596034
1526,3.3086947980336845
1527,3.3200771984411404
1528,3.3092127996496856
1529,3.3167746005347
1530,3.331384199555032
1531,3.310989802412223
1532,3.297713599749841
1533,3.6581259992090054
1534,3.304159799881745
1535,3.2779079978354275
1536,3.3045249976566993
1537,3.2842396016349085
1538,3.28212979802629
1539,3.3139050006866455
1540,3.288421200704761
1541,3.3293513988610357
1542,3.3275500012678094
1543,3.330175000883173
1544,3.329266000946518
1545,3.3418995997635648
1546,3.333874999952968
1547,3.339249998680316
1548,3.3527076011523604
1549,3.3451401977799833
1550,3.3555810019606724
1551,3.3418273989809677
1552,3.3507737985928543
1553,3.35442600044189
1554,3.3617324006627314
1555,3.3344776020385325
1556,3.3336361972033046
1557,3.313998797966633
1558,3.321701601089444
1559,3.330965001077857
1560,3.3239555996260606
1561,3.333504199690651
1562,3.320280801563058
1563,3.3420045976527035
1564,3.3382702007656917
1565,3.3429452014388517
1566,3.3290146006038412
1567,3.331769403303042
1568,3.338892199099064
1569,3.344591599307023
1570,3.339993402187247
1571,3.38315760018304
1572,3.389418398728594
1573,3.3799302007537335
1574,3.3879226000863127
1575,3.3888429985381663
1576,3.398437002033461
1577,3.3864330005599186
1578,3.401679199305363
1579,3.4476055996492505
1580,3.404021200549323
1581,3.4132346001570113
1582,3.4078580007189885
1583,3.4030727998469956
1584,3.4099811979103833
1585,3.369752199796494
1586,3.366885197465308
1587,3.361088801466394
1588,3.370541000913363
1589,3.357321198564023
1590,3.3706848000292666
1591,3.3678633990348317
1592,3.370876799453981
1593,3.3845752011984587
1594,3.3812731999205425
1595,3.4388176005450077
1596,3.4131780004827306
1597,3.429606401186902
1598,3.4339678022661246
1599,3.4321011989959516
1600,3.4242103982251137
1601,3.4356325995759107
1602,3.4315085998969153
1603,3.4378305994323455
1604,3.443439200054854
1605,3.4420181982568465
1606,3.4506265990785323
1607,3.486098602297716
1608,3.456168598495424
1609,3.482676598650869
1610,3.4454079999704845
1611,3.4474690022761934
1612,3.4668268024688587
1613,3.455654399294872
1614,3.4570796007756144
1615,3.45942459825892
1616,3.457360400352627
1617,3.451142799167428
1618,3.4586414010846056
1619,3.4542095992946997
1620,3.482549601176288
1621,3.454108798177913
1622,3.4641452017240226
1623,3.4859089995734394
1624,3.4429552004439756
1625,3.4428877974278294
1626,3.4306064000702463
1627,3.433022201352287
1628,3.441898198798299
1629,3.477615801966749
1630,3.4681214005104266
1631,3.496840797015466
1632,3.4869177965447307
1633,3.4807420001016
1634,3.5043522002524696
1635,3.4785046009346843
1636,3.502342797582969
1637,3.499002000899054
1638,3.4961743993335404
1639,3.4805415984010324
1640,3.497380201588385
1641,3.501747199334204
1642,3.5026120021939278
1643,3.5037850015214644
1644,3.4886644018115476
1645,3.5026344034122303
1646,3.5218315999372862
1647,3.5021425981540233
1648,3.5066012002062052
1649,3.4888703987235203
1650,3.5139317988068797
1651,3.522212001553271
1652,3.50796199782053
1653,3.477235999889672
1654,3.4874577992013656
1655,3.564818798622582
1656,3.588260199467186
1657,3.539697200176306
1658,3.5691505996510386
1659,3.5744580018217675
1660,3.5803483973722905
1661,3.573168598813936
1662,3.5779643993009813
1663,3.5777711993432604
1664,3.545597198535688
1665,3.540860598150175
1666,3.5571639993577264
1667,3.5470300004817545
1668,3.538336198835168
1669,3.549522599496413
1670,3.540437197079882
1671,3.5396007981034927
1672,3.5419321997324005
1673,3.5464528016746044
1674,3.5532705995137803
1675,3.552895200846251
1676,3.5485660017002374
1677,3.5441748026642017
1678,3.5516845993697643
1679,3.5586120007792488
1680,3.55842619901523
1681,3.5508605986251496
1682,3.5645675990963355
1683,3.5633620020234957
1684,3.5560912001528777
1685,3.5649812009069137
1686,3.5657969987369142
1687,3.520115197170526
1688,3.5697074024938047
1689,3.5332836021552794
1690,3.5419132007518783
1691,3.546747200016398
1692,3.550556999107357
1693,3.5462177998851985
1694,3.5316501976922154
1695,3.529310600424651
1696,3.5313988002599217
1697,3.5357095999643207
1698,3.534366999519989
1699,3.535588401427958
1700,3.53863260243088
1701,3.537918000074569
1702,3.5429984010988846
1703,3.5413833989878185
1704,3.558206000889186
1705,3.543402600917034
1706,3.5559166004532017
1707,3.5526524006854743
1708,3.551610402064398
1709,3.549398599716369
1710,3.5583370001404546
1711,3.556451600161381
1712,3.556942600698676
1713,3.563443799794186
1714,3.56510399869876
1715,3.5649893994559534
1716,3.5870230000000447
1717,3.5677813983056694
1718,3.58840180124389
1719,3.5878816022886895
1720,3.6121010009082966
1721,3.6256533974665217
1722,3.6347265995573252
1723,3.6240582005120814
1724,3.6258805979741737
1725,3.6290526026277803
1726,3.6288237999542616
1727,3.623645400512032
1728,3.6335904005682096
1729,3.636859000835102
1730,3.640211002493743
1731,3.6409812004421838
1732,3.64747779967729
1733,3.6380139994435012
1734,3.6441472024307586
1735,3.618597199965734
1736,3.593096000258811
1737,3.594523800711613
1738,3.6010634023114108
1739,3.609836999385152
1740,3.600121001363732
1741,3.6019266000948846
1742,3.6105254010180943
1743,3.6217583998222835
1744,3.6203248018864542
1745,3.613093399326317
1746,3.6216311986208893
1747,3.6134039983153343
1748,3.611604000616353
1749,3.6331035997136496
1750,3.6227638003765605
1751,3.63990120094968
1752,3.625640200334601
1753,3.6270439988584258
1754,3.643049401580356
1755,3.631602598761674
1756,3.6437483999179676
1757,3.644861397333443
1758,3.6375618001329713
1759,3.6426247999770567
1760,3.645255799347069
1761,3.643180000653956
1762,3.635991997725796
1763,3.6486208002315834
1764,3.6502943985396996
1765,3.6509195997496136
1766,3.663609798240941
1767,3.6811244004638866
1768,3.713178999896627
1769,3.697016202204395
1770,3.672966398880817
1771,3.6763971991604194
1772,3.6511379992589355
1773,3.6554999969666824
1774,3.6693902002298273
1775,3.6600235995138064
1776,3.6723086013807915
1777,3.6709788008010946
1778,3.6663197985035367
1779,3.680552399600856
1780,3.6807075986871496
1781,3.6830208016908728
1782,3.6789695994229987
1783,3.714240800763946
1784,3.7292969995178282
1785,3.7382745984359644
1786,3.7382912007160485
1787,3.742163001152221
1788,3.7382742026238702
1789,3.742731398961041
1790,3.739572198537644
1791,3.7485969995032065
1792,3.7435507983900607
1793,3.706982798757963
1794,3.701778399408795
1795,3.710621999925934
1796,3.713499200239312
1797,3.715837399067823
1798,3.7079128000186756
1799,3.697474599175621
1800,3.7109475990291685
1801,3.7055462002172135
1802,3.6995806003687903
1803,3.7159272003918886
1804,4.135241599578876
1805,3.7291523985913955
1806,3.709748799155932
1807,3.736136197403539
1808,3.7235548021271825
1809,3.74109680269612
1810,3.7246089996187948
1811,3.722698998171836
1812,3.738642002281267
1813,3.7344976008171216
1814,3.7371470010839403
1815,3.734832798363641
1816,3.7275215989211574
1817,3.740449000906665
1818,3.736304999620188
1819,3.7522468002862297
1820,3.7388063996331766
1821,3.739953401964158
1822,3.7584870020509697
1823,3.7861665987293236
1824,3.8096124000730924
1825,3.7691224017180502
1826,3.761507198214531
1827,3.77101160120219
1828,3.7564090016530827
1829,3.763742199225817
1830,3.7732716009486467
1831,3.7728758034063503
1832,3.7525211984757334
1833,3.7813494011061266
1834,3.8240466004936025
1835,3.8108247972559184
1836,3.815680199477356
1837,3.812521199870389
1838,3.815928201947827
1839,3.8261537993093953
1840,3.833070800465066
1841,3.825722000328824
1842,3.8470446001156233
1843,3.8400412027840503
1844,3.829377800866496
1845,3.853496197552886
1846,3.857901399896946
1847,3.844518399273511
1848,3.8449852014309727
1849,3.8401656012865715
1850,3.848468599608168
1851,3.8377848017262295
1852,3.8526144009665586
1853,3.848462598398328
1854,3.851576200395357
1855,3.8385645995731466
1856,3.8583694011322223
1857,3.845015999104362
1858,3.862907600705512
1859,3.863815598015208
1860,3.8590608004597016
1861,3.8466898011392914
1862,3.8742182005080394
1863,3.8676217998727225
1864,3.8827750002383254
1865,3.8727275998098776
1866,4.188607199466787
1867,4.240329601452686
1868,4.234387997712474
1869,4.270403800182976
1870,4.269073200703133
1871,4.27708100178279
1872,4.262798199488316
1873,4.267700598575175
1874,4.2851570004131645
1875,4.268423200119287
1876,4.28765019896673
1877,4.2679648016928695
1878,4.282191199308727
1879,4.279565199976787
1880,4.2383730004075915
1881,4.23061119945487
1882,4.232213598152157
1883,4.25540500000352
1884,4.284498599008657
1885,4.304840203258209
1886,4.287953399762046
1887,4.298170599213336
1888,4.3045893995440565
1889,4.301887801557314
1890,4.284311800438445
1891,4.265537399624009
1892,4.289637198962737
1893,4.320760800328571
1894,4.318795198923908
1895,4.26277460064739
1896,4.27328480000142
1897,4.256432200782001
1898,4.2581646019243635
1899,4.271628399146721
1900,4.263114798231982
1901,4.267138600698672
1902,4.266413398727309
1903,4.286883800523356
1904,4.3178631967748515
1905,4.341265399125405
1906,4.307545401388779
1907,4.339015200093854
1908,4.323940401081927
1909,4.282865001005121
1910,4.276485199807212
1911,4.289048801001627
1912,4.324725401238538
1913,4.302402399480343
1914,4.372835198591929
1915,4.343426201376133
1916,4.343865999544505
1917,4.306217998964712
1918,4.318970000895206
1919,4.345552803715691
1920,4.312325600767508
1921,4.34985160100041
1922,4.359319400100503
1923,4.352248800569214
1924,4.35751360055292
1925,4.359951399965212
1926,4.357996598992031
1927,4.353155198623426
1928,4.374612201354466
1929,4.370795800059568
1930,4.3643693992635235
1931,4.355928601580672
1932,4.36747540225042
1933,4.373339400626719
1934,4.369002801831812
1935,4.3595810027909465
1936,4.379533600877039
1937,4.35517180012539
1938,4.333140797098167
1939,4.3255839991616085
1940,4.338450600334909
1941,4.3346716003725305
1942,4.389914400235284
1943,4.380663798656315
1944,4.388115598703735
1945,4.386437400535215
1946,4.398863000096753
1947,4.407343397906516
1948,4.386451999016572
1949,4.392552001809236
1950,4.40272540145088
1951,4.37217840080848
1952,4.393113999685738
1953,4.38980699836975
1954,4.4126476015662774
1955,4.410446397378109
1956,4.426883801352233
1957,4.418144801456947
1958,4.408141401654575
1959,4.416454199235886
1960,4.413384001236409
1961,4.412591599975713
1962,4.428723199816886
1963,4.416260399739258
1964,4.427419998683035
1965,4.4200844000442885
1966,4.424597600882407
1967,4.427605398814194
1968,4.438183402817231
1969,4.434633199707605
1970,4.43106120073935
1971,4.448139600572176
1972,4.437503199733328
1973,4.502952999609988
1974,4.485006001777947
1975,4.488217999460176
1976,4.4880368004669435
1977,4.433611000422388
1978,4.5000858008279465
1979,4.507004198967479
1980,4.530399800569285
1981,4.514111801108811
1982,4.498583999520633
1983,4.505475200130604
1984,4.516599795897491
1985,4.506044399749953
1986,4.510918603045866
1987,4.512062000867445
1988,4.521877599472646
1989,4.516947602678556
1990,4.520372000115458
1991,4.5037410003715195
1992,4.517783000483178
1993,4.52339579933323
1994,4.528735401981976
1995,4.527756400057115
1996,4.532141199160833
1997,4.535140398365911
1998,4.530319198966026
1999,4.53670879942365
2000,4.531665598915424
